Knot_Tying_B002,1483,9,0,1,1,2,2
Knot_Tying_C002,1071,22,1,4,3,3,4
Knot_Tying_D002,1243,16,2,3,2,2,3
Knot_Tying_E002,1300,19,2,3,3,3,3
Knot_Tying_F002,1014,20,1,4,3,3,3
Knot_Tying_G002,2284,11,0,2,2,1,2
Knot_Tying_I002,2429,8,0,1,1,1,2
