Knot_Tying_B001,1746,13,0,2,2,2,2
Knot_Tying_C001,1230,20,1,4,3,3,3
Knot_Tying_D001,1401,14,2,3,1,2,3
Knot_Tying_E001,1594,18,2,4,2,2,3
Knot_Tying_F001,922,16,1,3,2,2,3
Knot_Tying_G001,2371,9,0,2,2,1,1
Knot_Tying_I001,2331,9,0,2,1,1,1
