Suturing_B004,3271,10,0,1,1,2,3,2,1
Suturing_C004,2490,30,1,5,5,5,5,5,5
Suturing_D004,2744,8,2,1,1,1,2,1,2
Suturing_E004,2928,19,2,3,2,3,4,3,4
Suturing_F004,2375,24,1,3,4,4,5,4,4
Suturing_G004,2652,21,0,4,3,3,4,3,4
Suturing_H004,4097,19,0,3,3,3,4,3,3
Suturing_I004,3742,23,0,4,4,3,4,4,4
