Suturing_B003,3434,14,0,3,2,2,2,2,3
Suturing_C003,3164,26,1,4,4,4,5,4,5
Suturing_D003,2319,14,2,2,2,2,3,2,3
Suturing_E003,2607,19,2,3,2,3,4,3,4
Suturing_F003,2277,29,1,5,5,4,5,5,5
Suturing_G003,5213,13,0,3,2,1,2,2,3
Suturing_H003,3407,25,0,4,4,4,5,4,4
Suturing_I003,4286,17,0,3,2,2,3,3,4
