Suturing_B002,3459,17,0,4,2,2,3,3,3
Suturing_C002,3280,20,1,3,3,3,4,3,4
Suturing_D002,2217,18,2,2,3,3,4,3,3
Suturing_E002,2950,20,2,4,2,3,4,3,4
Suturing_F002,2378,26,1,4,4,4,5,4,5
Suturing_G002,3383,18,0,3,2,2,4,3,4
Suturing_I002,4415,23,0,4,4,3,4,4,4
